<?xml version="1.0" encoding="utf-8"?>
<!-- Generator: Adobe Illustrator 16.0.0, SVG Export Plug-In . SVG Version: 6.00 Build 0)  -->
<!DOCTYPE svg PUBLIC "-//W3C//DTD SVG 1.1//EN" "http://www.w3.org/Graphics/SVG/1.1/DTD/svg11.dtd">
<svg version="1.1" id="圖層_1" xmlns="http://www.w3.org/2000/svg" xmlns:xlink="http://www.w3.org/1999/xlink" x="0px" y="0px"
	 width="48.351px" height="48.263px" viewBox="0 0 48.351 48.263" enable-background="new 0 0 48.351 48.263" xml:space="preserve">
<path fill="#BABABA" d="M36.248,23.04c0.563,0.562,0.563,1.473,0,2.036l0,0c-0.563,0.563-1.474,0.563-2.036,0L16.5,7.364
	c-0.563-0.563-0.563-1.474,0-2.036l0,0c0.563-0.563,1.474-0.563,2.036,0L36.248,23.04z"/>
<path fill="#BABABA" d="M34.212,23.083c0.562-0.563,1.473-0.563,2.036,0l0,0c0.563,0.563,0.563,1.474,0,2.036L18.537,42.831
	c-0.563,0.563-1.474,0.563-2.036,0l0,0c-0.563-0.563-0.563-1.474,0-2.036L34.212,23.083z"/>
</svg>
